[
  {
    "id": 1,
    "name": "Sofia Estate",
    "area": 400,
    "location": "Sofia",
    "image": "https://cdn-icons-png.flaticon.com/512/916/916771.png"
  },
  {
    "id": 2,
    "name": "Varna palace",
    "area": 1000,
    "location": "Varna",
    "image": "https://cdn-icons-png.flaticon.com/512/269/269947.png"
  },
  {
    "id": 3,
    "name": "Sunny house",
    "area": 500,
    "location": "Sunny",
    "image": "https://cdn-icons-png.flaticon.com/512/602/602182.png"
  },
  {
    "id": 4,
    "name": "Burgas buildings",
    "area": 200,
    "location": "Burgas",
    "image": "https://cdn-icons-png.flaticon.com/512/602/602182.png"
  },
  {
    "id": 5,
    "name": "My apartment345678",
    "area": 1000,
    "location": "Sofia, Malinova dolina",
    "image": "https://cdn-icons-png.flaticon.com/512/3438/3438476.png"
  }
]